<?xml version="1.0" encoding="UTF-8" standalone="no" ?>
<COLLADA xmlns="http://www.collada.org/2005/11/COLLADASchema" version="1.4.1">
    <asset>
        <contributor>
            <authoring_tool>SketchUp 6.4.112</authoring_tool>
        </contributor>
        <created>2017-03-24T23:31:41Z</created>
        <modified>2017-03-24T23:31:41Z</modified>
        <unit meter="0.0254" name="inch" />
        <up_axis>Z_UP</up_axis>
    </asset>
    <library_cameras>
        <camera id="ID1" name="skp_camera_Last_Saved_SketchUp_View">
            <optics>
                <technique_common>
                    <perspective>
                        <yfov>35</yfov>
                        <aspect_ratio>0</aspect_ratio>
                        <znear>1</znear>
                        <zfar>1000</zfar>
                    </perspective>
                </technique_common>
            </optics>
        </camera>
    </library_cameras>
    <library_visual_scenes>
        <visual_scene id="ID2">
            <node name="SketchUp">
                <instance_geometry url="#ID3">
                    <bind_material>
                        <technique_common>
                            <instance_material symbol="Material2" target="#ID4">
                                <bind_vertex_input semantic="UVSET0" input_semantic="TEXCOORD" input_set="0" />
                            </instance_material>
                            <instance_material symbol="Material3" target="#ID11">
                                <bind_vertex_input semantic="UVSET0" input_semantic="TEXCOORD" input_set="0" />
                            </instance_material>
                            <instance_material symbol="Material4" target="#ID12">
                                <bind_vertex_input semantic="UVSET0" input_semantic="TEXCOORD" input_set="0" />
                            </instance_material>
                            <instance_material symbol="Material5" target="#ID14">
                                <bind_vertex_input semantic="UVSET0" input_semantic="TEXCOORD" input_set="0" />
                            </instance_material>
                            <instance_material symbol="Material6" target="#ID16">
                                <bind_vertex_input semantic="UVSET0" input_semantic="TEXCOORD" input_set="0" />
                            </instance_material>
                        </technique_common>
                    </bind_material>
                </instance_geometry>
                <node name="skp_camera_Last_Saved_SketchUp_View">
                    <matrix>0.5774193 0.3033551 -0.7579991 -524.21 -0.8164477 0.214543 -0.5360824 -324.2011 0 0.928411 0.3715548 293.4253 0 0 0 1</matrix>
                    <instance_camera url="#ID1" />
                </node>
            </node>
        </visual_scene>
    </library_visual_scenes>
    <library_geometries>
        <geometry id="ID3">
            <mesh>
                <source id="ID6">
                    <float_array id="ID18" count="294">107 80.75 0 59.25 80.75 0 29.625 164.5 0 0 80.75 0 -47.75 80.75 0 0 0 0 59.25 0 0 59.25 80.75 0 29.625 164.5 0 59.25 0 0 0 0 0 0 80.75 0 -47.75 80.75 0 107 80.75 0 -47.75 80.75 0 29.625 164.5 0 107 80.75 0 59.25 80.75 0 59.25 0 0 0 0 0 0 80.75 0 29.625 164.5 33 -47.75 80.75 0 -47.75 80.75 33 29.625 164.5 0 29.625 164.5 0 29.625 164.5 33 -47.75 80.75 0 -47.75 80.75 33 -47.75 80.75 33 29.625 164.5 33 29.625 164.5 0 107 80.75 33 107 80.75 0 29.625 164.5 33 29.625 164.5 33 29.625 164.5 0 107 80.75 33 107 80.75 0 107 80.75 33 107 80.75 33 59.25 80.75 0 107 80.75 0 59.25 80.75 33 59.25 80.75 33 107 80.75 33 59.25 80.75 0 107 80.75 0 59.25 80.75 33 59.25 80.75 0 59.25 0 33 59.25 0 0 59.25 80.75 33 59.25 80.75 33 59.25 80.75 0 59.25 0 33 59.25 0 0 59.25 0 33 59.25 0 33 0 0 0 59.25 0 0 0 0 33 0 0 33 59.25 0 33 0 0 0 59.25 0 0 0 0 33 0 80.75 33 0 0 0 0 0 33 0 80.75 0 0 80.75 0 0 80.75 33 0 0 0 0 0 33 0 80.75 33 0 80.75 33 -47.75 80.75 0 0 80.75 0 -47.75 80.75 33 -47.75 80.75 33 0 80.75 33 -47.75 80.75 0 0 80.75 0 59.25 0 33 0 80.75 33 0 0 33 29.625 164.5 33 59.25 80.75 33 107 80.75 33 -47.75 80.75 33 0 80.75 33 -47.75 80.75 33 29.625 164.5 33 107 80.75 33 59.25 80.75 33 59.25 0 33 0 0 33</float_array>
                    <technique_common>
                        <accessor count="98" source="#ID18" stride="3">
                            <param name="X" type="float" />
                            <param name="Y" type="float" />
                            <param name="Z" type="float" />
                        </accessor>
                    </technique_common>
                </source>
                <source id="ID7">
                    <float_array id="ID19" count="294">0 0 -1 0 0 -1 0 0 -1 0 0 -1 0 0 -1 0 0 -1 0 0 -1 -0 -0 1 -0 -0 1 -0 -0 1 -0 -0 1 -0 -0 1 -0 -0 1 -0 -0 1 0 0 0 0 0 0 0 0 0 0 0 0 0 0 0 0 0 0 0 0 0 -0.7345092 0.6785988 0 -0.7345092 0.6785988 0 -0.7345092 0.6785988 0 -0.7345092 0.6785988 0 0.7345092 -0.6785988 -0 0.7345092 -0.6785988 -0 0.7345092 -0.6785988 -0 0.7345092 -0.6785988 -0 0 0 0 0 0 0 0.7345092 0.6785988 0 0.7345092 0.6785988 0 0.7345092 0.6785988 0 0.7345092 0.6785988 0 -0.7345092 -0.6785988 -0 -0.7345092 -0.6785988 -0 -0.7345092 -0.6785988 -0 -0.7345092 -0.6785988 -0 0 0 0 -0 -1 -0 -0 -1 -0 -0 -1 -0 -0 -1 -0 0 1 0 0 1 0 0 1 0 0 1 0 0 0 0 1 0 0 1 0 0 1 0 0 1 0 0 -1 -0 -0 -1 -0 -0 -1 -0 -0 -1 -0 -0 0 0 0 -0 -1 -0 -0 -1 -0 -0 -1 -0 -0 -1 -0 0 1 0 0 1 0 0 1 0 0 1 0 0 0 0 -1 0 0 -1 0 0 -1 0 0 -1 0 0 1 -0 -0 1 -0 -0 1 -0 -0 1 -0 -0 0 0 0 -0 -1 -0 -0 -1 -0 -0 -1 -0 -0 -1 -0 0 1 0 0 1 0 0 1 0 0 1 0 0 0 1 0 0 1 0 0 1 0 0 1 0 0 1 0 0 1 0 0 1 -0 -0 -1 -0 -0 -1 -0 -0 -1 -0 -0 -1 -0 -0 -1 -0 -0 -1 -0 -0 -1</float_array>
                    <technique_common>
                        <accessor count="98" source="#ID19" stride="3">
                            <param name="X" type="float" />
                            <param name="Y" type="float" />
                            <param name="Z" type="float" />
                        </accessor>
                    </technique_common>
                </source>
                <source id="ID8">
                    <Name_array id="ID20" count="0" />
                    <technique_common>
                        <accessor count="0" source="#ID20" stride="1">
                            <param name="skp_material" type="Name" />
                        </accessor>
                    </technique_common>
                </source>
                <vertices id="ID9">
                    <input semantic="POSITION" source="#ID6" />
                    <input semantic="NORMAL" source="#ID7" />
                </vertices>
                <triangles count="24" material="Material2">
                    <input offset="0" semantic="VERTEX" source="#ID9" />
                    <p>0 1 2 2 3 4 3 2 5 5 2 6 6 2 1 21 22 23 22 21 24 31 32 33 32 31 34 40 41 42 41 40 43 49 50 51 50 49 52 58 59 60 59 58 61 67 68 69 68 67 70 76 77 78 77 76 79 84 85 86 85 84 87 87 84 88 87 88 89 87 90 85</p>
                </triangles>
                <triangles count="24" material="Material3">
                    <input offset="0" semantic="VERTEX" source="#ID9" />
                    <p>7 8 9 9 8 10 10 8 11 12 11 8 8 7 13 25 26 27 28 27 26 35 36 37 38 37 36 44 45 46 47 46 45 53 54 55 56 55 54 62 63 64 65 64 63 71 72 73 74 73 72 80 81 82 83 82 81 91 92 93 94 95 93 95 96 93 93 96 91 97 91 96</p>
                </triangles>
                <lines count="19" material="Material4">
                    <input offset="0" semantic="VERTEX" source="#ID9" />
                    <p>14 15 17 16 18 17 19 18 19 20 14 20 14 29 29 30 15 30 30 39 16 39 48 39 17 48 57 48 18 57 66 57 19 66 66 75 29 75</p>
                </lines>
                <lines count="1" material="Material5">
                    <input offset="0" semantic="VERTEX" source="#ID9" />
                    <p>15 16</p>
                </lines>
                <lines count="1" material="Material6">
                    <input offset="0" semantic="VERTEX" source="#ID9" />
                    <p>20 75</p>
                </lines>
            </mesh>
        </geometry>
    </library_geometries>
    <library_materials>
        <material id="ID4" name="__0064_Chartreuse_">
            <instance_effect url="#ID5" />
        </material>
        <material id="ID11" name="material">
            <instance_effect url="#ID10" />
        </material>
        <material id="ID12" name="edge_color000255">
            <instance_effect url="#ID13" />
        </material>
        <material id="ID14" name="edge_color1272550255">
            <instance_effect url="#ID15" />
        </material>
        <material id="ID16" name="edge_color750130255">
            <instance_effect url="#ID17" />
        </material>
    </library_materials>
    <library_effects>
        <effect id="ID5">
            <profile_COMMON>
                <technique sid="COMMON">
                    <lambert>
                        <diffuse>
                            <color>0.4980392 1 0 1</color>
                        </diffuse>
                    </lambert>
                </technique>
            </profile_COMMON>
        </effect>
        <effect id="ID10">
            <profile_COMMON>
                <technique sid="COMMON">
                    <lambert>
                        <diffuse>
                            <color>0.6705882 0.6901961 0.8 1</color>
                        </diffuse>
                    </lambert>
                </technique>
            </profile_COMMON>
        </effect>
        <effect id="ID13">
            <profile_COMMON>
                <technique sid="COMMON">
                    <constant>
                        <transparent opaque="A_ONE">
                            <color>0 0 0 1</color>
                        </transparent>
                        <transparency>
                            <float>1</float>
                        </transparency>
                    </constant>
                </technique>
            </profile_COMMON>
        </effect>
        <effect id="ID15">
            <profile_COMMON>
                <technique sid="COMMON">
                    <constant>
                        <transparent opaque="A_ONE">
                            <color>0.4980392 1 0 1</color>
                        </transparent>
                        <transparency>
                            <float>1</float>
                        </transparency>
                    </constant>
                </technique>
            </profile_COMMON>
        </effect>
        <effect id="ID17">
            <profile_COMMON>
                <technique sid="COMMON">
                    <constant>
                        <transparent opaque="A_ONE">
                            <color>0.2941177 0 0.509804 1</color>
                        </transparent>
                        <transparency>
                            <float>1</float>
                        </transparency>
                    </constant>
                </technique>
            </profile_COMMON>
        </effect>
    </library_effects>
    <scene>
        <instance_visual_scene url="#ID2" />
    </scene>
</COLLADA>
