{
  "project_info": {
    "project_number": "542382690348",
    "firebase_url": "https://indoornav-3168c.firebaseio.com",
    "project_id": "indoornav-3168c",
    "storage_bucket": "indoornav-3168c.appspot.com"
  },
  "client": [
    {
      "client_info": {
        "mobilesdk_app_id": "1:542382690348:android:9de5b53b59fd4e7b",
        "android_client_info": {
          "package_name": "com.firebase.android"
        }
      },
      "oauth_client": [
        {
          "client_id": "542382690348-guca6e6fn8na6kavtd3jv884n6mo9cu9.apps.googleusercontent.com",
          "client_type": 3
        }
      ],
      "api_key": [
        {
          "current_key": "AIzaSyBs3-U1FJd5tX41t_As_Fu-2QE3W6aCDoM"
        }
      ],
      "services": {
        "analytics_service": {
          "status": 1
        },
        "appinvite_service": {
          "status": 1,
          "other_platform_oauth_client": []
        },
        "ads_service": {
          "status": 2
        }
      }
    }
  ],
  "configuration_version": "1"
}